{"success":true,"data":{"menuItems":[{"dietary":{"isVegetarian":true,"isVegan":true,"isGlutenFree":true,"isOrganic":false,"isSpicy":false,"spicyLevel":0},"nutrition":{"alcohol":20},"availability":{"availableTimeSlots":{"lunch":false,"dinner":true,"allDay":false,"breakfast":false,"brunch":false},"isAvailable":true,"availableDays":["monday","tuesday","wednesday","thursday","friday","saturday"]},"inventory":{"hasInventory":false,"currentStock":0,"lowStockThreshold":5,"isOutOfStock":false},"_id":"683d9730aabb7dcb0061bb9a","name":"Bramble","description":"London Dry Gin, crème de mûre, citron vert, simple sirop","category":"cocktails","priceVariants":[{"size":"25cl","price":10,"isDefault":true,"_id":"683d9730aabb7dcb0061bb9b","id":"683d9730aabb7dcb0061bb9b"}],"images":[],"tags":["signature","fruité"],"displayOrder":1,"isActive":true,"restaurantId":{"address":{"street":"123 Rue de la Paix","city":"Paris","zipCode":"75001","country":"France"},"_id":"683d94ad8316d4fd564c58d1","name":"Le Bistrot de Zengest","fullAddress":"123 Rue de la Paix, 75001 Paris, France","id":"683d94ad8316d4fd564c58d1"},"ingredients":[],"createdAt":"2025-06-02T12:21:04.410Z","updatedAt":"2025-06-02T12:21:04.410Z","basePrice":10,"defaultPrice":{"size":"25cl","price":10,"isDefault":true,"_id":"683d9730aabb7dcb0061bb9b","id":"683d9730aabb7dcb0061bb9b"},"id":"683d9730aabb7dcb0061bb9a"},{"dietary":{"isVegetarian":true,"isVegan":false,"isGlutenFree":true,"isOrganic":false,"isSpicy":false,"spicyLevel":0},"availability":{"availableTimeSlots":{"lunch":true,"dinner":true,"allDay":true,"breakfast":false,"brunch":false},"isAvailable":true,"availableDays":["monday","tuesday","wednesday","thursday","friday","saturday"]},"inventory":{"hasInventory":false,"currentStock":0,"lowStockThreshold":5,"isOutOfStock":false},"_id":"683d9730aabb7dcb0061bb5a","name":"Comté Affiné 18 mois","description":"Comté affiné 18 mois","category":"cheeses","priceVariants":[{"size":"portion","price":6,"isDefault":true,"_id":"683d9730aabb7dcb0061bb5b","id":"683d9730aabb7dcb0061bb5b"}],"images":[],"tags":["fromage","premium","affiné"],"displayOrder":1,"isActive":true,"restaurantId":{"address":{"street":"123 Rue de la Paix","city":"Paris","zipCode":"75001","country":"France"},"_id":"683d94ad8316d4fd564c58d1","name":"Le Bistrot de Zengest","fullAddress":"123 Rue de la Paix, 75001 Paris, France","id":"683d94ad8316d4fd564c58d1"},"ingredients":[],"createdAt":"2025-06-02T12:21:04.141Z","updatedAt":"2025-06-02T12:21:04.141Z","basePrice":6,"defaultPrice":{"size":"portion","price":6,"isDefault":true,"_id":"683d9730aabb7dcb0061bb5b","id":"683d9730aabb7dcb0061bb5b"},"id":"683d9730aabb7dcb0061bb5a"},{"dietary":{"isVegetarian":true,"isVegan":false,"isGlutenFree":false,"isOrganic":false,"isSpicy":false,"spicyLevel":0},"availability":{"availableTimeSlots":{"lunch":true,"dinner":true,"allDay":true,"breakfast":false,"brunch":false},"isAvailable":true,"availableDays":["monday","tuesday","wednesday","thursday","friday","saturday"]},"inventory":{"hasInventory":false,"currentStock":0,"lowStockThreshold":5,"isOutOfStock":false},"_id":"683d9730aabb7dcb0061bb49","name":"Cookie Choco-Noisettes","description":"Cookie maison chocolat et noisettes","category":"desserts","priceVariants":[{"size":"simple","price":4,"isDefault":true,"_id":"683d9730aabb7dcb0061bb4a","id":"683d9730aabb7dcb0061bb4a"},{"size":"avec glace","price":7,"isDefault":false,"_id":"683d9730aabb7dcb0061bb4b","id":"683d9730aabb7dcb0061bb4b"}],"images":[],"tags":["maison","chocolat"],"displayOrder":1,"isActive":true,"restaurantId":{"address":{"street":"123 Rue de la Paix","city":"Paris","zipCode":"75001","country":"France"},"_id":"683d94ad8316d4fd564c58d1","name":"Le Bistrot de Zengest","fullAddress":"123 Rue de la Paix, 75001 Paris, France","id":"683d94ad8316d4fd564c58d1"},"ingredients":[],"createdAt":"2025-06-02T12:21:04.063Z","updatedAt":"2025-06-02T12:21:04.063Z","basePrice":4,"defaultPrice":{"size":"simple","price":4,"isDefault":true,"_id":"683d9730aabb7dcb0061bb4a","id":"683d9730aabb7dcb0061bb4a"},"id":"683d9730aabb7dcb0061bb49"}],"pagination":{"totalPages":21,"currentPage":1,"total":63,"limit":3},"filters":{"availableCategories":["appetizers","beers","cheeses","cocktails","desserts","mains","mocktails","salads","sides","wines_red","wines_rose","wines_sparkling","wines_white"],"priceRange":{"_id":null,"minPrice":4,"maxPrice":70}}}}